{
    "batch_size": 32,
    "epsilon_decay": 0.0005,
    "gamma": 0.99,
    "max_epsilon": 1.0,
    "memory_length": 1000,
    "min_epsilon": 0.1,
    "name": "demo_dqn",
    "num_frames": 969,
    "target_update": 100
}